…
words_by_time
```

```
## # A tibble: 2,847 x 6
##    time_floor person             word count time_total word_total
##        <dttm>  <chr>            <chr> <int>      <int>      <int>
##  1 2016-05-01   Mara            #d3js     3       3176         48
##  2 2016-05-01   Mara         #datasci     3       3176         51
##  3 2016-05-01   Mara         #dataviz    67       3176        876
##  4 2016-05-01   Mara             #ddj     2       3176         62
##  5 2016-05-01   Mara         #ggplot2     4       3176         41
##  6 2016-05-01   Mara #machinelearning     5       3176         71
##  7 2016-05-01   Mara            #maps     8       3176        100
##  8 2016-05-01   Mara           #maths     4       3176         31
##  9 2016-05-01   Mara             #nba     7       3176        134
## 10 2016-05-01   Mara       #nerdhumor     6       3176         52
## # ... with 2,837 more rows
```


```r
nested_data <- words_by_time %>%
  nest(-word, -person)

nested_data
```

```
## # A tibble: 234 x 3
##    person             word              data
##     <chr>            <chr>            <list>
##  1   Mara            #d3js <tibble [12 x 4]>
##  2   Mara         #datasci <tibble [13 x 4]>
##  3   Mara         #dataviz <tibble [13 x 4]>
##  4   Mara             #ddj <tibble [13 x 4]>
##  5   Mara         #ggplot2 <tibble [13 x 4]>
##  6   Mara #machinelearning <tibble [13 x 4]>
##  7   Mara            #maps <tibble [13 x 4]>
##  8   Mara           #maths <tibble [12 x 4]>
##  9   Mara             #nba <tibble [13 x 4]>
## 10   Mara       #nerdhumor <tibble [13 x 4]>
## # ... with 224 more rows
```
For modeling `purrr`-poses (get it?), next we're gonna do a little bit of nesting.[^nesting]


```r
library(purrr)

nested_models <- nested_data %>%
  mutate(models = map(data, ~ glm(cbind(count, time_total) ~ time_floor, ., 
                                  family = "binomial")))

nested_models
```

```
## # A tibble: 234 x 4
##    person             word              data    models
##     <chr>            <chr>            <list>    <list>
##  1   Mara            #d3js <tibble [12 x 4]> <S3: glm>
##  2   Mara         #datasci <tibble [13 x 4]> <S3: glm>
##  3   Mara         #dataviz <tibble [13 x 4]> <S3: glm>
##  4   Mara             #ddj <tibble [13 x 4]> <S3: glm>
##  5   Mara         #ggplot2 <tibble [13 x 4]> <S3: glm>
##  6   Mara #machinelearning <tibble [13 x 4]> <S3: glm>
##  7   Mara            #maps <tibble [13 x 4]> <S3: glm>
##  8   Mara           #maths <tibble [12 x 4]> <S3: glm>
##  9   Mara             #nba <tibble [13 x 4]> <S3: glm>
## 10   Mara       #nerdhumor <tibble [13 x 4]> <S3: glm>
## # ... with 224 more rows
```
…
